...
----------------------------------------------------------------------
Ran 3 tests in 0.001s

OK
Name               Stmts   Miss Branch BrPart  Cover   Missing
--------------------------------------------------------------
Diplomacy.py         119      1     66      2    98%   60->61, 61, 134->136
TestDiplomacy.py      21      0      2      1    96%   48->exit
--------------------------------------------------------------
TOTAL                140      1     68      3    98%
