----------------------------------------------------------------------
Ran 17 tests in 0.001s

OK
Name               Stmts   Miss Branch BrPart  Cover   Missing
--------------------------------------------------------------
Diplomacy.py          70      0     44      0   100%
TestDiplomacy.py      93      0      2      1    99%   143->exit
--------------------------------------------------------------
TOTAL                163      0     46      1    99%
