...
----------------------------------------------------------------------
Ran 3 tests in 0.004s

OK
Name               Stmts   Miss Branch BrPart  Cover   Missing
--------------------------------------------------------------
Diplomacy.py          86      0     60      1    99%   81->80
TestDiplomacy.py      21      0      0      0   100%
--------------------------------------------------------------
TOTAL                107      0     60      1    99%
