....
----------------------------------------------------------------------
Ran 4 tests in 0.001s

OK
Name               Stmts   Miss Branch BrPart  Cover   Missing
--------------------------------------------------------------
Diplomacy.py          57      0     36      0   100%
TestDiplomacy.py      26      0      2      1    96%   58->exit
--------------------------------------------------------------
TOTAL                 83      0     38      1    99%