....................
----------------------------------------------------------------------
Ran 20 tests in 0.001s

OK
Name               Stmts   Miss Branch BrPart  Cover   Missing
--------------------------------------------------------------
Diplomacy.py          80      3     38      4    94%   52->54, 54->55, 55-57, 60->59, 73->59
TestDiplomacy.py     108      0      0      0   100%
--------------------------------------------------------------
TOTAL                188      3     38      4    97%
